…
Total number of homicides, unsolved homicides.

``` r
homicide_data %>% 
  group_by(city_state) %>% 
  summarize(
    total_homicides = n(),
    unsolved_homicides = sum(disposition %in% c("Closed without arrest", "Open/No arrest"))
  )
```

    ## # A tibble: 51 × 3
    ##    city_state     total_homicides unsolved_homicides
    ##    <chr>                    <int>              <int>
    ##  1 Albuquerque,NM             375                144
    ##  2 Atlanta,GA                 973                373
    ##  3 Baltimore,MD              2827               1825
    ##  4 Baton Rouge,LA             424                196
    ##  5 Birmingham,AL              799                346
    ##  6 Boston,MA                  612                309
    ##  7 Buffalo,NY                 520                318
    ##  8 Charlotte,NC               687                206
    ##  9 Chicago,IL                5535               4073
    ## 10 Cincinnati,OH              694                309
    ## # ℹ 41 more rows
…
    ## Warning: There was 1 warning in `mutate()`.
    ## ℹ In argument: `prop_test = map2(unsolved, total, ~prop.test(.x, .y))`.
    ## Caused by warning in `prop.test()`:
    ## ! Chi-squared approximation may be incorrect

``` r
city_results
```

    ## # A tibble: 51 × 4
    ##    city_state     estimate conf.low conf.high
    ##    <chr>             <dbl>    <dbl>     <dbl>
    ##  1 Albuquerque,NM    0.384    0.335     0.436
    ##  2 Atlanta,GA        0.383    0.353     0.415
    ##  3 Baltimore,MD      0.646    0.628     0.663
    ##  4 Baton Rouge,LA    0.462    0.414     0.511
    ##  5 Birmingham,AL     0.433    0.398     0.468
    ##  6 Boston,MA         0.505    0.465     0.545
    ##  7 Buffalo,NY        0.612    0.568     0.653
    ##  8 Charlotte,NC      0.300    0.266     0.336
    ##  9 Chicago,IL        0.736    0.724     0.747
    ## 10 Cincinnati,OH     0.445    0.408     0.483
    ## # ℹ 41 more rows
…
